Exercise: Tidy and dplyr
…
Start by loading the dplyr package:

library(dplyr)

Now, dive into the exercises!

1. Average Pageviews

To get the averages for each combination of deviceCategory and channelGrouping we simply use summarise() with group_by:

group_by(web_data, deviceCategory, channelGrouping) %>%
  summarise(mean(pageviews))

## # A tibble: 27 x 3
## # Groups:   deviceCategory [?]
##    deviceCategory channelGrouping `mean(pageviews)`
##             <chr>           <chr>             <dbl>
##  1        desktop         (Other)          108.4413
##  2        desktop          Direct         2220.2394
##  3        desktop         Display          576.0329
##  4        desktop           Email          246.8169
##  5        desktop  Organic Search         2902.8826
##  6        desktop     Paid Search         1927.7136
##  7        desktop        Referral         1401.0094
##  8        desktop          Social          368.0798
##  9        desktop           Video          584.2358
## 10         mobile         (Other)          193.7981
## # ... with 17 more rows

This function uses the group_by function to take the data set (web_data) and specify that it should be grouped together by two fields: deviceCategory and channelGrouping. That, in and of itself, isn’t enough, as this simply identifies the grouped rows. It doesn’t actually collapse them in any way (run the code above without the summarise() function to see).

So, in addition to grouping, we need to specify how we want to handle the multiple rows that we’ll collapse within the groups. For that, we use the summarise() function, tell it that we want to include pageviews as a metric, and tell it that we want to collapse the grouped rows by averaging (mean()) pageviews.

Note #1: The above uses the ‘pipe’ notation. The exact same result could be achieved by nesting the group_by() function inside the summarise() function (below). In simple cases, either way works, but the pipe notation generally makes for more readable code.

summarise(group_by(web_data, deviceCategory, channelGrouping),mean(pageviews))

Note #2: We could include multiple metrics in the summarise() function. For instance, if we wanted to get the total visits and the average pageviews, we could alter the code slightly:

group_by(web_data, deviceCategory, channelGrouping) %>%
  summarise(mean(pageviews),sum(sessions))

## # A tibble: 27 x 4
## # Groups:   deviceCategory [?]
##    deviceCategory channelGrouping `mean(pageviews)` `sum(sessions)`
##             <chr>           <chr>             <dbl>           <int>
##  1        desktop         (Other)          108.4413           10820
##  2        desktop          Direct         2220.2394          297580
##  3        desktop         Display          576.0329           88688
##  4        desktop           Email          246.8169           22350
##  5        desktop  Organic Search         2902.8826          156144
##  6        desktop     Paid Search         1927.7136          154535
##  7        desktop        Referral         1401.0094           75253
##  8        desktop          Social          368.0798           22434
##  9        desktop           Video          584.2358           92885
## 10         mobile         (Other)          193.7981           29115
## # ... with 17 more rows
…
